Gramática

    0 $accept: prog $end

    1 prog: INSTRUCCIONES

    2 INSTRUCCIONES: ε
    3              | INSTRUCCION PUNTOCOMA INSTRUCCIONES

    4 INSTRUCCION: ε
    5            | CADENA
    6            | ENTERO
    7            | OTHER
    8            | CHMOD


Terminales con las reglas donde aparecen

    $end (0) 0
    error (256)
    CADENA <cad> (258) 5
    ENTERO <number> (259) 6
    OTHER (260) 7
    PUNTOCOMA (261) 3
    CHMOD <reservada> (262) 8


No terminales con las reglas donde aparecen

    $accept (8)
        on left: 0
    prog (9)
        on left: 1
        on right: 0
    INSTRUCCIONES (10)
        on left: 2 3
        on right: 1 3
    INSTRUCCION (11)
        on left: 4 5 6 7 8
        on right: 3


Estado 0

    0 $accept: • prog $end

    CADENA  desplazar e ir al estado 1
    ENTERO  desplazar e ir al estado 2
    OTHER   desplazar e ir al estado 3
    CHMOD   desplazar e ir al estado 4

    PUNTOCOMA  reduce usando la regla 4 (INSTRUCCION)
    $default   reduce usando la regla 2 (INSTRUCCIONES)

    prog           ir al estado 5
    INSTRUCCIONES  ir al estado 6
    INSTRUCCION    ir al estado 7


Estado 1

    5 INSTRUCCION: CADENA •

    $default  reduce usando la regla 5 (INSTRUCCION)


Estado 2

    6 INSTRUCCION: ENTERO •

    $default  reduce usando la regla 6 (INSTRUCCION)


Estado 3

    7 INSTRUCCION: OTHER •

    $default  reduce usando la regla 7 (INSTRUCCION)


Estado 4

    8 INSTRUCCION: CHMOD •

    $default  reduce usando la regla 8 (INSTRUCCION)


Estado 5

    0 $accept: prog • $end

    $end  desplazar e ir al estado 8


Estado 6

    1 prog: INSTRUCCIONES •

    $default  reduce usando la regla 1 (prog)


Estado 7

    3 INSTRUCCIONES: INSTRUCCION • PUNTOCOMA INSTRUCCIONES

    PUNTOCOMA  desplazar e ir al estado 9


Estado 8

    0 $accept: prog $end •

    $default  aceptar


Estado 9

    3 INSTRUCCIONES: INSTRUCCION PUNTOCOMA • INSTRUCCIONES

    CADENA  desplazar e ir al estado 1
    ENTERO  desplazar e ir al estado 2
    OTHER   desplazar e ir al estado 3
    CHMOD   desplazar e ir al estado 4

    PUNTOCOMA  reduce usando la regla 4 (INSTRUCCION)
    $default   reduce usando la regla 2 (INSTRUCCIONES)

    INSTRUCCIONES  ir al estado 10
    INSTRUCCION    ir al estado 7


Estado 10

    3 INSTRUCCIONES: INSTRUCCION PUNTOCOMA INSTRUCCIONES •

    $default  reduce usando la regla 3 (INSTRUCCIONES)
